<?xml version="1.0" encoding="UTF-8" standalone="no"?>
<!-- Created with Inkscape (http://www.inkscape.org/) -->

<svg
   xmlns:dc="http://purl.org/dc/elements/1.1/"
   xmlns:cc="http://creativecommons.org/ns#"
   xmlns:rdf="http://www.w3.org/1999/02/22-rdf-syntax-ns#"
   xmlns:svg="http://www.w3.org/2000/svg"
   xmlns="http://www.w3.org/2000/svg"
   xmlns:sodipodi="http://sodipodi.sourceforge.net/DTD/sodipodi-0.dtd"
   xmlns:inkscape="http://www.inkscape.org/namespaces/inkscape"
   width="744.09448819"
   height="1052.3622047"
   id="svg2"
   version="1.1"
   inkscape:version="0.48.2 r9819"
   sodipodi:docname="TipCalcLogo.svg"
   inkscape:export-filename="/Users/alley/Projects/tdd_ios_kiwi/code/TipCalculator/Graphics/TipCalcLogo@2X.png"
   inkscape:export-xdpi="20.021954"
   inkscape:export-ydpi="20.021954">
  <defs
     id="defs4" />
  <sodipodi:namedview
     id="base"
     pagecolor="#ffffff"
     bordercolor="#666666"
     borderopacity="1.0"
     inkscape:pageopacity="0.0"
     inkscape:pageshadow="2"
     inkscape:zoom="0.35"
     inkscape:cx="-130.71429"
     inkscape:cy="405.71429"
     inkscape:document-units="px"
     inkscape:current-layer="layer1"
     showgrid="false"
     inkscape:window-width="1276"
     inkscape:window-height="756"
     inkscape:window-x="4"
     inkscape:window-y="0"
     inkscape:window-maximized="1" />
  <metadata
     id="metadata7">
    <rdf:RDF>
      <cc:Work
         rdf:about="">
        <dc:format>image/svg+xml</dc:format>
        <dc:type
           rdf:resource="http://purl.org/dc/dcmitype/StillImage" />
        <dc:title></dc:title>
      </cc:Work>
    </rdf:RDF>
  </metadata>
  <g
     inkscape:label="Layer 1"
     inkscape:groupmode="layer"
     id="layer1">
    <rect
       style="fill:#0000ff;fill-rule:evenodd;stroke:#000000;stroke-width:1px;stroke-linecap:butt;stroke-linejoin:miter;stroke-opacity:1"
       id="rect2987"
       width="511.42856"
       height="511.42856"
       x="145.71428"
       y="240.93361"
       ry="100" />
    <g
       id="g3818"
       transform="translate(0,-18)">
      <path
         sodipodi:open="true"
         transform="matrix(0.61172184,0,0,0.57713565,169.54364,-115.41762)"
         sodipodi:end="7.9342832"
         sodipodi:start="1.8035814"
         d="m 357.58576,871.24474 c -22.26323,-5.27824 -36.03229,-27.605 -30.75405,-49.86824 5.27823,-22.26323 27.605,-36.03229 49.86823,-30.75405 22.26323,5.27823 36.03229,27.605 30.75406,49.86823 -4.71771,19.89895 -23.2497,33.37843 -43.63435,31.73798"
         sodipodi:ry="41.42857"
         sodipodi:rx="41.42857"
         sodipodi:cy="830.93359"
         sodipodi:cx="367.14285"
         id="path2989"
         style="fill:#e3dbdb;fill-rule:evenodd;stroke:none"
         sodipodi:type="arc" />
      <path
         sodipodi:nodetypes="cccc"
         inkscape:connector-curvature="0"
         id="path2991"
         d="M 392.95415,375.30757 C 228.45679,403.88392 209.72663,568.9914 209.72663,568.9914 L 590.291,572.1665 C 585.32449,516.84807 536.83259,393.63034 392.95415,375.30757 z"
         style="fill:#e3dbdb;stroke:none" />
      <rect
         ry="4.0462747"
         y="561.37103"
         x="156.85715"
         height="15.562596"
         width="477.14288"
         id="rect3761"
         style="fill:#e3dbdb" />
      <path
         sodipodi:nodetypes="cccc"
         inkscape:connector-curvature="0"
         id="path3765"
         d="m 425.17637,400.70872 c 120.75837,63.50291 117.81305,146.05666 117.81305,146.05666 l -55.9612,-15.87573 z"
         style="fill:#ffffff;stroke:#000000;stroke-width:1.07032704px;stroke-linecap:butt;stroke-linejoin:miter;stroke-opacity:1" />
    </g>
    <text
       xml:space="preserve"
       style="font-size:144.16384888px;font-style:italic;font-variant:normal;font-weight:bold;font-stretch:normal;line-height:125%;letter-spacing:0px;word-spacing:0px;fill:#ffffff;fill-opacity:1;stroke:none;font-family:Brush Script MT;-inkscape-font-specification:Brush Script MT Bold Italic"
       x="170.22302"
       y="613.59802"
       id="text3824"
       sodipodi:linespacing="125%"
       transform="scale(0.90787769,1.10147)"><tspan
         sodipodi:role="line"
         id="tspan3826"
         x="170.22302"
         y="613.59802">Tip Please</tspan></text>
  </g>
</svg>
